506697 61596 449
879198 215976 525
191111 155496 383
672305 598161 509
131831 414596 449
871662 155743 525
27275 789570 509
941685 351924 525
398173 487007 449
173940 3043 383
368161 532088 470
944858 178584 525
347680 317531 441
340489 953277 525
167149 768159 509
210383 39465 383
752413 301358 509
108621 550966 470
817264 804568 406
670686 811583 504
585922 164539 470
283157 25497 443
521298 784063 509
479917 270532 449
420551 100982 449
139480 906222 525
702548 443304 509
904726 704856 525
869550 65035 525
762050 766059 375
407573 249557 441
293824 102281 443
509099 443801 444
377196 54032 443
168596 4379 383
421235 977549 525
144500 141289 375
188077 324644 443
775007 88899 509
695882 412616 509
896667 966367 507
952827 452715 525
417462 214993 449
670076 766750 504
327482 560509 470
125917 577703 470
973177 311645 525
416773 997490 525
401191 504911 449
312053 635867 509
517446 948750 525
807776 503977 509
287125 1958 443
172459 299554 443
960996 223753 525
601681 100119 470
631984 560054 509
834038 192800 509
194926 686627 509
413664 563150 470
292178 180813 443
808112 509166 509
355423 584240 470
94786 904535 525
71691 272050 443
682359 401868 509
379110 818227 509
269754 149090 443
139061 393551 443
339584 722794 509
928595 218162 525
334369 689566 509
770782 177541 509
590354 504290 470
520385 117646 470
89978 202501 383
727921 157351 509
856750 565709 525
842262 420231 525
300304 991823 525
790254 993711 525
259340 577615 470
287022 977270 525
389788 281187 441
826589 874825 525
952770 600862 525
215401 150961 383
271998 607467 470
12803 398734 443
706174 605139 509
962998 403298 525
361454 642760 509
517439 886109 525
648618 735380 504
936049 717492 525
688412 180657 509
966103 850242 507
725656 718371 411
964065 970226 365
275991 943863 525
763182 493301 509
762530 560649 509
457774 972470 525
502627 627582 509
37624 134568 354
604270 673413 509
72881 857427 525
228950 551934 470
228105 443734 449
903496 768518 525
588983 641596 509
114469 251959 443
305859 167009 443
790009 756195 468
341278 597115 470
171029 659403 509
866386 812626 525
62749 222970 386
888110 754950 525
423203 154743 449
894374 102075 525
213588 678898 509
742504 197541 509
337681 373473 441
873035 765189 525
564658 673397 509
850299 175130 525
785624 527679 509
85153 478760 449
837293 954861 525
193901 657793 509
839086 729385 525
436893 278239 449
531353 914264 525
301362 932128 525
162509 595807 470
527915 70757 470
615622 903956 525
19384 673820 509
602997 300935 470
256242 708468 509
536943 190404 470
508140 202797 449
751399 406067 509
384467 411502 449
166618 504224 449
2291 26566 282
971742 430397 525
524007 554215 452
465212 293548 449
479982 451856 444
621225 559804 447
744926 990169 525
261320 398036 441
346998 851182 525
975817 16328 525
55398 401644 443
102038 991270 525
593103 562154 434
876391 66453 525
159939 634369 509
133578 767705 509
372534 275611 441
509991 908810 525
815159 957354 525
978116 718090 525
931429 985821 507
226289 546274 470
262420 272238 407
310994 741833 509
600366 75977 470
474627 236335 449
230613 993848 525
838742 958575 507
410065 785317 509
724104 755812 424
588957 202503 470
438646 59763 449
436008 100464 449
534152 810964 509
306811 458413 449
821704 363836 509
727610 495719 509
708972 113668 509
704714 631300 504
282194 353235 441
792782 634550 504
792245 389801 509
783897 111335 509
263625 585158 470
38509 908496 525
4283 362515 443
146820 342809 443
66938 833067 509
490982 247136 449
764989 624167 509
820925 923180 525
707133 396473 509
311874 347471 441
515842 598434 452
633625 577336 509
819613 874535 525
180894 155707 383
264590 195976 443
844612 395923 525
314218 53425 443
657682 864875 525
743652 697384 504
67705 351587 443
290074 235636 407
353483 811663 509
79737 815304 509
112875 467221 449
998331 582963 525
661389 91882 509
189223 470554 449
661622 108445 509
619916 484066 470
159295 989615 525
729280 680272 504
300155 281283 389
628199 221862 509
602467 587015 403
85836 304762 443
898733 180448 525
385325 477806 449
534124 541298 408
701451 991044 525
10474 780944 509
631738 177281 509
302250 154311 443
896638 339896 525
956545 633739 525
761335 152325 509
625797 689438 509
635706 3410 509
592088 707922 509
389478 12924 443
867589 410243 525
385677 543084 470
604514 561319 434
368713 21475 443
268882 403663 441
348105 911606 525
909061 790821 525
593051 367631 470
890916 700110 525
392168 830721 509
183522 675869 509
152379 711697 509
77425 365439 443
847141 754798 525
405241 84242 443
758150 195063 509
282098 743109 509
460257 498589 444
437598 667690 509
81384 892762 525
974449 685399 525
835837 81281 509
485305 454839 444
938315 929468 445
151592 786338 509
246139 384811 441
25729 735396 509
696 479751 449
180240 700236 509
41523 961727 525
172387 776600 509
651228 129776 509
143165 89165 375
75590 182946 383
546339 729971 509
527525 915615 525
493806 381376 449
403528 648189 509
17786 996997 525
490098 445447 444
835965 863832 525
187393 988959 525
195815 985459 525
815996 348588 509
533381 528543 377
951098 201414 525
335647 176563 443
379747 199573 443
627285 994733 525
313514 209438 443
288794 529549 470
869389 16248 525
884328 192012 525
885705 315058 525
765846 162557 509
701051 743564 504
161401 184563 365
27431 965574 525
819660 707613 468
69211 134098 354
383482 75053 443
989242 793145 525
