145093 436067 449
515134 793325 509
698849 891769 525
809748 993943 525
588610 872415 525
716735 973356 525
462093 872678 525
717790 832787 468
111436 653305 509
253454 759969 509
606593 694268 509
694357 902342 525
674755 840342 525
538285 669268 509
50627 275588 443
63596 989498 525
486071 793691 509
528322 712176 509
616189 942259 525
897195 983279 507
932826 986177 507
997369 998744 440
881208 965644 507
520446 772921 509
591655 984636 525
582065 665415 509
656182 757039 504
848538 933640 476
819990 990149 525
941351 988959 458
808727 889192 525
446928 699054 509
209153 744333 509
823824 979057 525
89011 335037 443
897293 974495 507
271589 480243 449
225776 794835 509
174832 368325 443
14355 594615 470
827705 876199 525
821940 878655 525
552612 846790 525
106501 600849 470
446910 985617 525
362044 412888 449
466105 519648 470
191410 245454 443
459167 837541 509
138126 196874 383
815193 926793 525
677905 691726 398
529288 893992 525
180088 854081 525
210984 986234 525
560930 582620 421
93903 186048 383
5540 824425 509
111933 859234 525
129799 153598 375
744209 749777 393
154429 899490 525
992357 996129 365
795722 971442 525
920297 947705 507
576766 814993 509
9761 525699 470
199961 869605 525
854413 922840 476
948351 982602 458
480585 854948 525
328627 662268 509
190049 673938 509
295080 741981 509
234189 914313 525
925516 934481 476
899744 924829 476
254612 976685 525
581911 602645 434
565159 745696 509
623857 822428 509
248800 748998 509
289632 329643 384
960945 987225 458
31479 579166 470
197747 228011 386
401130 606969 470
522928 968046 525
94348 866968 525
406031 815346 509
775842 977836 525
912736 917455 383
141511 685364 509
425368 827420 509
614339 632088 509
127482 369187 443
399607 714921 509
553179 935672 525
968836 980899 458
593920 936818 525
865274 901609 445
722485 880456 525
693572 723158 504
362342 749896 509
889805 905675 401
802962 916799 525
373531 983347 525
24318 84396 351
266447 449130 449
101022 430336 449
296780 703564 509
14410 175354 383
828999 961645 525
259342 432189 449
735646 849737 525
341218 689340 509
504326 711436 509
804233 822640 450
468492 939737 525
182562 270645 443
422907 831582 509
838649 862184 419
636129 661405 429
989257 991786 352
617675 969638 525
473618 934339 525
296505 640222 509
93223 849700 525
844247 885626 432
547860 643926 509
292704 958044 525
81989 296572 443
182170 852332 525
628628 750225 504
995511 996832 365
743763 851195 525
635140 862001 525
897358 971765 507
171290 691169 509
101205 834716 509
375080 588799 470
228527 641643 509
943009 986735 458
785849 960589 525
27684 156752 383
77034 385237 443
642646 711128 504
190928 617723 470
213523 782918 509
260769 840826 525
535422 738677 509
125243 491679 449
894327 992636 507
102407 341445 443
90508 340943 443
548290 597355 434
797793 864739 525
405341 808534 509
872427 913549 476
663408 815279 504
341624 420829 449
217274 622169 470
408695 519619 470
591858 775469 509
292391 293166 340
966589 982294 458
654070 704060 442
480059 912113 525
728648 829506 468
130907 785284 509
593064 640184 509
370720 373054 348
782589 861782 525
744598 837352 468
682996 945046 525
226313 869377 525
139949 239521 443
335199 956475 525
205366 940121 525
155499 966984 525
482210 914926 525
757442 869016 525
325721 792925 509
210312 442283 449
449497 695855 509
325676 796039 509
188157 881876 525
566222 642376 509
202953 969057 525
774240 780913 437
777878 824629 468
114698 124876 349
787640 895349 525
816323 869611 525
857802 938499 476
157179 426708 449
185819 568393 470
434356 991002 525
262131 710417 509
950488 987099 458
485897 644512 509
41503 240004 443
985769 990327 396
599132 707730 509
742417 780735 468
179513 674297 509
20718 985248 525
318489 336282 384
647038 892835 525
412635 818334 509
34773 886811 525
924484 980005 507
137214 467105 449
137947 393690 443
758578 769853 468
607678 883381 525
664777 800308 504
832606 998783 525
147806 668347 509
935123 956976 507
263488 999728 525
559498 589507 434
444450 529263 470
94776 586933 470
339393 778024 509
633898 726267 504
327877 740985 509
433692 717007 509
831491 886377 525
607386 801613 509
315552 765431 509
682758 718985 504
86812 627462 509
136273 919333 525
694049 908772 525
284436 442977 449
505688 933959 525
167044 665493 509
63664 400303 443
685864 744406 504
73608 570666 470
699796 751427 504
93101 354458 443
180930 369508 443
359742 393414 436
53392 572631 470
827261 950560 525
205719 579517 470
172293 686108 509
830870 853086 525
16348 676695 509
744824 745822 349
45649 202952 383
856627 969574 507
577044 953830 525
144643 212016 383
201826 610495 470
594141 613610 403
110777 397835 443
386633 958762 525
259046 882933 525
46830 235128 443
919711 920224 432
141199 470516 449
996872 996969 321
494829 831419 509
931939 947366 507
273979 927075 525
709387 837867 525
299288 484890 449
820430 910320 525
336066 374250 441
118802 440140 449
591037 825498 509
941143 956874 414
471704 821508 509
257008 936759 525
912917 941465 507
119687 793502 509
667495 927698 525
59000 156892 383
640705 976059 525
618390 860681 525
566437 620840 447
4417 613070 470
970722 993195 427
827829 855115 525
81128 927095 525
52977 871570 525
202578 975550 525
471220 533539 470
864713 873975 432
351756 778627 509
861238 867116 388
450220 704087 509
94956 181178 383
644925 958644 525
886075 995915 507
306491 462351 449
229 989967 525
